{
    "0": {
	    "currentDurability": 0,
	    "location": {
	        "y": 27,
	        "x": 35
	    },
	    "currentRespawnTime": 0,
	    "currentState": "main",
	    "itemInstanceId": 0,
	    "maxRespawnTime": 0,
	    "itemDef": "PORTAL.LADDER.WOOD",
	    "maxDurability": 0
    }
}