{
    "terrain": "cottage",
    "indoor": true,
    "ambientLight": {
        "g": 255,
        "b": 255,
        "r": 255,
        "a": 0
    },
    "spawn":{"x":2,"y":6},"trackListing":{"interval":{"min":300000,"max":600000},"tracks":["MUSIC.DULCIMER"]}
}