{
    "terrain": "overWorld",
    "spawn": {
        "y": 392,
        "x": 388
    },
    "trackListing": {
        "interval": {
            "min": 300000,
            "max": 600000
        },
        "tracks": ["MUSIC.DULCIMER","MUSIC.HOW.THEY.RUN","MUSIC.TRIP.TO.NORFOLK","MUSIC.WUBWUBWUB"]
    }
}