{
    "159": {
        "currentDurability": 0,
        "location": {
            "y": 5,
            "x": 7
        },
        "currentRespawnTime": 0,
        "currentState": "main",
        "itemInstanceId": 159,
        "maxRespawnTime": 0,
        "itemDef": "TABLE.WOOD",
        "placer": "",
        "maxDurability": 0
    },
    "158": {
        "currentDurability": 0,
        "location": {
            "y": 5,
            "x": 124
        },
        "currentRespawnTime": 0,
        "currentState": "main",
        "itemInstanceId": 158,
        "maxRespawnTime": 0,
        "itemDef": "TABLE.WOOD",
        "placer": "",
        "maxDurability": 0
    },
    "157": {
        "currentDurability": 0,
        "location": {
            "y": 0,
            "x": 111
        },
        "currentRespawnTime": 0,
        "currentState": "main",
        "itemInstanceId": 157,
        "maxRespawnTime": 0,
        "itemDef": "TABLE.WOOD",
        "placer": "",
        "maxDurability": 0
    },
    "156": {
        "currentDurability": 0,
        "location": {
            "y": 0,
            "x": 116
        },
        "currentRespawnTime": 0,
        "currentState": "main",
        "itemInstanceId": 156,
        "maxRespawnTime": 0,
        "itemDef": "TABLE.WOOD",
        "placer": "",
        "maxDurability": 0
    },
    "155": {
        "currentDurability": 100,
        "location": {
            "y": 4,
            "x": 9
        },
        "currentRespawnTime": 0,
        "currentState": "faceLeft",
        "itemInstanceId": 155,
        "maxRespawnTime": 0,
        "itemDef": "CHAIR.WOODEN",
        "placer": "",
        "maxDurability": 100
    },
    "154": {
        "currentDurability": 100,
        "location": {
            "y": 6,
            "x": 9
        },
        "currentRespawnTime": 0,
        "currentState": "faceLeft",
        "itemInstanceId": 154,
        "maxRespawnTime": 0,
        "itemDef": "CHAIR.WOODEN",
        "placer": "",
        "maxDurability": 100
    },
    "152": {
        "currentDurability": 100,
        "location": {
            "y": 4,
            "x": 6
        },
        "currentRespawnTime": 0,
        "currentState": "faceRight",
        "itemInstanceId": 152,
        "maxRespawnTime": 0,
        "itemDef": "CHAIR.WOODEN",
        "placer": "",
        "maxDurability": 100
    },
    "153": {
        "currentDurability": 100,
        "location": {
            "y": 6,
            "x": 6
        },
        "currentRespawnTime": 0,
        "currentState": "faceRight",
        "itemInstanceId": 153,
        "maxRespawnTime": 0,
        "itemDef": "CHAIR.WOODEN",
        "placer": "",
        "maxDurability": 100
    },
    "150": {
        "currentDurability": 100,
        "location": {
            "y": 6,
            "x": 126
        },
        "currentRespawnTime": 0,
        "currentState": "faceLeft",
        "itemInstanceId": 150,
        "maxRespawnTime": 0,
        "itemDef": "CHAIR.WOODEN",
        "placer": "",
        "maxDurability": 100
    },
    "151": {
        "currentDurability": 100,
        "location": {
            "y": 4,
            "x": 126
        },
        "currentRespawnTime": 0,
        "currentState": "faceLeft",
        "itemInstanceId": 151,
        "maxRespawnTime": 0,
        "itemDef": "CHAIR.WOODEN",
        "placer": "",
        "maxDurability": 100
    },
    "81": {
        "currentDurability": 0,
        "location": {
            "y": 126,
            "x": 116
        },
        "currentRespawnTime": 0,
        "currentState": "main",
        "itemInstanceId": 81,
        "maxRespawnTime": 0,
        "itemDef": "TABLE.WOOD",
        "placer": "",
        "maxDurability": 0
    },
    "69": {
        "currentDurability": 100,
        "location": {
            "y": 1,
            "x": 110
        },
        "currentRespawnTime": 0,
        "currentState": "faceRight",
        "itemInstanceId": 69,
        "maxRespawnTime": 0,
        "itemDef": "CHAIR.WOODEN",
        "placer": "",
        "maxDurability": 100
    },
    "127": {
        "currentDurability": 0,
        "location": {
            "y": 125,
            "x": 125
        },
        "currentRespawnTime": 0,
        "currentState": "main",
        "itemInstanceId": 127,
        "maxRespawnTime": 0,
        "itemDef": "TABLE.TRESTLE",
        "placer": "",
        "maxDurability": 0
    },
    "68": {
        "currentDurability": 100,
        "location": {
            "y": 127,
            "x": 110
        },
        "currentRespawnTime": 0,
        "currentState": "faceRight",
        "itemInstanceId": 68,
        "maxRespawnTime": 0,
        "itemDef": "CHAIR.WOODEN",
        "placer": "",
        "maxDurability": 100
    },
    "128": {
        "currentDurability": 0,
        "location": {
            "y": 127,
            "x": 125
        },
        "currentRespawnTime": 0,
        "currentState": "main",
        "itemInstanceId": 128,
        "maxRespawnTime": 0,
        "itemDef": "TABLE.TRESTLE",
        "placer": "",
        "maxDurability": 0
    },
    "22": {
        "currentDurability": 0,
        "location": {
            "y": 125,
            "x": 13
        },
        "currentRespawnTime": 0,
        "currentState": "grain",
        "itemInstanceId": 22,
        "maxRespawnTime": 0,
        "itemDef": "MARKET.SACKS",
        "placer": "",
        "maxDurability": 0
    },
    "23": {
        "currentDurability": 0,
        "location": {
            "y": 125,
            "x": 22
        },
        "currentRespawnTime": 0,
        "currentState": "main",
        "itemInstanceId": 23,
        "maxRespawnTime": 0,
        "itemDef": "SACK.MULTIPLE",
        "placer": "",
        "maxDurability": 0
    },
    "24": {
        "currentDurability": 0,
        "location": {
            "y": 125,
            "x": 18
        },
        "currentRespawnTime": 0,
        "currentState": "main",
        "itemInstanceId": 24,
        "maxRespawnTime": 0,
        "itemDef": "WOOD.PILE.SINGLE",
        "placer": "",
        "maxDurability": 0
    },
    "25": {
        "currentDurability": 0,
        "location": {
            "y": 125,
            "x": 17
        },
        "currentRespawnTime": 0,
        "currentState": "main",
        "itemInstanceId": 25,
        "maxRespawnTime": 0,
        "itemDef": "WOOD.PILE.SINGLE",
        "placer": "",
        "maxDurability": 0
    },
    "129": {
        "currentDurability": 0,
        "location": {
            "y": 125,
            "x": 7
        },
        "currentRespawnTime": 0,
        "currentState": "main",
        "itemInstanceId": 129,
        "maxRespawnTime": 0,
        "itemDef": "TABLE.TRESTLE",
        "placer": "",
        "maxDurability": 0
    },
    "26": {
        "currentDurability": 0,
        "location": {
            "y": 125,
            "x": 19
        },
        "currentRespawnTime": 0,
        "currentState": "main",
        "itemInstanceId": 26,
        "maxRespawnTime": 0,
        "itemDef": "WOOD.PILE.SINGLE",
        "placer": "",
        "maxDurability": 0
    },
    "29": {
        "userDefinedData": {
            "items": [],
            "keySlot": null
        },
        "currentDurability": 1000,
        "location": {
            "y": 124,
            "x": 15
        },
        "currentRespawnTime": 0,
        "currentState": "closed",
        "itemInstanceId": 29,
        "maxRespawnTime": 0,
        "itemDef": "CONTAINER.BARREL.COPPER",
        "placer": "",
        "maxDurability": 1000
    },
    "161": {
        "currentDurability": 0,
        "location": {
            "y": 124,
            "x": 109
        },
        "currentRespawnTime": 0,
        "currentState": "green",
        "itemInstanceId": 161,
        "maxRespawnTime": 0,
        "itemDef": "LIGHT.WALL.SCONCE",
        "placer": "",
        "maxDurability": 0
    },
    "162": {
        "currentDurability": 0,
        "location": {
            "y": 0,
            "x": 15
        },
        "currentRespawnTime": 0,
        "currentState": "main",
        "itemInstanceId": 162,
        "maxRespawnTime": 0,
        "itemDef": "TABLE.WOOD",
        "placer": "",
        "maxDurability": 0
    },
    "163": {
        "currentDurability": 0,
        "location": {
            "y": 0,
            "x": 20
        },
        "currentRespawnTime": 0,
        "currentState": "main",
        "itemInstanceId": 163,
        "maxRespawnTime": 0,
        "itemDef": "TABLE.WOOD",
        "placer": "",
        "maxDurability": 0
    },
    "30": {
        "userDefinedData": {
            "items": [],
            "keySlot": null
        },
        "currentDurability": 1000,
        "location": {
            "y": 124,
            "x": 21
        },
        "currentRespawnTime": 0,
        "currentState": "closed",
        "itemInstanceId": 30,
        "maxRespawnTime": 0,
        "itemDef": "CONTAINER.BARREL.COPPER",
        "placer": "",
        "maxDurability": 1000
    },
    "160": {
        "currentDurability": 0,
        "location": {
            "y": 124,
            "x": 119
        },
        "currentRespawnTime": 0,
        "currentState": "green",
        "itemInstanceId": 160,
        "maxRespawnTime": 0,
        "itemDef": "LIGHT.WALL.SCONCE",
        "placer": "",
        "maxDurability": 0
    },
    "70": {
        "currentDurability": 100,
        "location": {
            "y": 1,
            "x": 113
        },
        "currentRespawnTime": 0,
        "currentState": "faceLeft",
        "itemInstanceId": 70,
        "maxRespawnTime": 0,
        "itemDef": "CHAIR.WOODEN",
        "placer": "",
        "maxDurability": 100
    },
    "9": {
        "currentDurability": 0,
        "location": {
            "y": 7,
            "x": 1
        },
        "currentRespawnTime": 0,
        "currentState": "main",
        "itemInstanceId": 9,
        "maxRespawnTime": 0,
        "itemDef": "PORTAL.BUILDING.EXIT",
        "placer": "",
        "maxDurability": 0
    },
    "71": {
        "currentDurability": 100,
        "location": {
            "y": 127,
            "x": 113
        },
        "currentRespawnTime": 0,
        "currentState": "faceLeft",
        "itemInstanceId": 71,
        "maxRespawnTime": 0,
        "itemDef": "CHAIR.WOODEN",
        "placer": "",
        "maxDurability": 100
    },
    "72": {
        "currentDurability": 100,
        "location": {
            "y": 127,
            "x": 115
        },
        "currentRespawnTime": 0,
        "currentState": "faceRight",
        "itemInstanceId": 72,
        "maxRespawnTime": 0,
        "itemDef": "CHAIR.WOODEN",
        "placer": "",
        "maxDurability": 100
    },
    "73": {
        "currentDurability": 100,
        "location": {
            "y": 1,
            "x": 115
        },
        "currentRespawnTime": 0,
        "currentState": "faceRight",
        "itemInstanceId": 73,
        "maxRespawnTime": 0,
        "itemDef": "CHAIR.WOODEN",
        "placer": "",
        "maxDurability": 100
    },
    "74": {
        "currentDurability": 100,
        "location": {
            "y": 1,
            "x": 118
        },
        "currentRespawnTime": 0,
        "currentState": "faceLeft",
        "itemInstanceId": 74,
        "maxRespawnTime": 0,
        "itemDef": "CHAIR.WOODEN",
        "placer": "",
        "maxDurability": 100
    },
    "75": {
        "currentDurability": 100,
        "location": {
            "y": 127,
            "x": 118
        },
        "currentRespawnTime": 0,
        "currentState": "faceLeft",
        "itemInstanceId": 75,
        "maxRespawnTime": 0,
        "itemDef": "CHAIR.WOODEN",
        "placer": "",
        "maxDurability": 100
    },
    "134": {
        "currentDurability": 100,
        "location": {
            "y": 126,
            "x": 124
        },
        "currentRespawnTime": 0,
        "currentState": "faceRight",
        "itemInstanceId": 134,
        "maxRespawnTime": 0,
        "itemDef": "CHAIR.WOODEN",
        "placer": "",
        "maxDurability": 100
    },
    "135": {
        "currentDurability": 100,
        "location": {
            "y": 127,
            "x": 124
        },
        "currentRespawnTime": 0,
        "currentState": "faceRight",
        "itemInstanceId": 135,
        "maxRespawnTime": 0,
        "itemDef": "CHAIR.WOODEN",
        "placer": "",
        "maxDurability": 100
    },
    "132": {
        "currentDurability": 0,
        "location": {
            "y": 124,
            "x": 7
        },
        "currentRespawnTime": 0,
        "currentState": "green",
        "itemInstanceId": 132,
        "maxRespawnTime": 0,
        "itemDef": "LIGHT.WALL.SCONCE",
        "placer": "",
        "maxDurability": 0
    },
    "133": {
        "currentDurability": 100,
        "location": {
            "y": 125,
            "x": 124
        },
        "currentRespawnTime": 0,
        "currentState": "faceRight",
        "itemInstanceId": 133,
        "maxRespawnTime": 0,
        "itemDef": "CHAIR.WOODEN",
        "placer": "",
        "maxDurability": 100
    },
    "138": {
        "currentDurability": 100,
        "location": {
            "y": 126,
            "x": 8
        },
        "currentRespawnTime": 0,
        "currentState": "faceLeft",
        "itemInstanceId": 138,
        "maxRespawnTime": 0,
        "itemDef": "CHAIR.WOODEN",
        "placer": "",
        "maxDurability": 100
    },
    "139": {
        "currentDurability": 100,
        "location": {
            "y": 127,
            "x": 8
        },
        "currentRespawnTime": 0,
        "currentState": "faceLeft",
        "itemInstanceId": 139,
        "maxRespawnTime": 0,
        "itemDef": "CHAIR.WOODEN",
        "placer": "",
        "maxDurability": 100
    },
    "136": {
        "currentDurability": 100,
        "location": {
            "y": 0,
            "x": 124
        },
        "currentRespawnTime": 0,
        "currentState": "faceRight",
        "itemInstanceId": 136,
        "maxRespawnTime": 0,
        "itemDef": "CHAIR.WOODEN",
        "placer": "",
        "maxDurability": 100
    },
    "19": {
        "currentDurability": 0,
        "location": {
            "y": 123,
            "x": 22
        },
        "currentRespawnTime": 0,
        "currentState": "wood",
        "itemInstanceId": 19,
        "maxRespawnTime": 0,
        "itemDef": "WINDOW.INTERIOR",
        "placer": "",
        "maxDurability": 0
    },
    "137": {
        "currentDurability": 100,
        "location": {
            "y": 125,
            "x": 8
        },
        "currentRespawnTime": 0,
        "currentState": "faceLeft",
        "itemInstanceId": 137,
        "maxRespawnTime": 0,
        "itemDef": "CHAIR.WOODEN",
        "placer": "",
        "maxDurability": 100
    },
    "18": {
        "currentDurability": 0,
        "location": {
            "y": 123,
            "x": 18
        },
        "currentRespawnTime": 0,
        "currentState": "wood",
        "itemInstanceId": 18,
        "maxRespawnTime": 0,
        "itemDef": "WINDOW.INTERIOR",
        "placer": "",
        "maxDurability": 0
    },
    "15": {
        "currentDurability": 0,
        "location": {
            "y": 123,
            "x": 114
        },
        "currentRespawnTime": 0,
        "currentState": "wood",
        "itemInstanceId": 15,
        "maxRespawnTime": 0,
        "itemDef": "WINDOW.INTERIOR",
        "placer": "",
        "maxDurability": 0
    },
    "16": {
        "currentDurability": 0,
        "location": {
            "y": 123,
            "x": 14
        },
        "currentRespawnTime": 0,
        "currentState": "wood",
        "itemInstanceId": 16,
        "maxRespawnTime": 0,
        "itemDef": "WINDOW.INTERIOR",
        "placer": "",
        "maxDurability": 0
    },
    "14": {
        "currentDurability": 0,
        "location": {
            "y": 123,
            "x": 110
        },
        "currentRespawnTime": 0,
        "currentState": "wood",
        "itemInstanceId": 14,
        "maxRespawnTime": 0,
        "itemDef": "WINDOW.INTERIOR",
        "placer": "",
        "maxDurability": 0
    },
    "11": {
        "currentDurability": 0,
        "location": {
            "y": 123,
            "x": 127
        },
        "currentRespawnTime": 0,
        "currentState": "wood",
        "itemInstanceId": 11,
        "maxRespawnTime": 0,
        "itemDef": "WINDOW.INTERIOR",
        "placer": "",
        "maxDurability": 0
    },
    "12": {
        "currentDurability": 0,
        "location": {
            "y": 123,
            "x": 118
        },
        "currentRespawnTime": 0,
        "currentState": "wood",
        "itemInstanceId": 12,
        "maxRespawnTime": 0,
        "itemDef": "WINDOW.INTERIOR",
        "placer": "",
        "maxDurability": 0
    },
    "21": {
        "currentDurability": 1000,
        "location": {
            "y": 124,
            "x": 16
        },
        "currentRespawnTime": 0,
        "currentState": "main",
        "itemInstanceId": 21,
        "maxRespawnTime": 0,
        "itemDef": "CRAFT.OVEN",
        "placer": "",
        "maxDurability": 1000
    },
    "20": {
        "currentDurability": 1000,
        "location": {
            "y": 124,
            "x": 20
        },
        "currentRespawnTime": 0,
        "currentState": "main",
        "itemInstanceId": 20,
        "maxRespawnTime": 0,
        "itemDef": "CRAFT.OVEN",
        "placer": "",
        "maxDurability": 1000
    },
    "104": {
        "currentDurability": 0,
        "location": {
            "y": 124,
            "x": 21
        },
        "currentRespawnTime": 0,
        "currentState": "green",
        "itemInstanceId": 104,
        "maxRespawnTime": 0,
        "itemDef": "LIGHT.WALL.SCONCE",
        "placer": "",
        "maxDurability": 0
    },
    "62": {
        "currentDurability": 0,
        "location": {
            "y": 126,
            "x": 111
        },
        "currentRespawnTime": 0,
        "currentState": "main",
        "itemInstanceId": 62,
        "maxRespawnTime": 0,
        "itemDef": "TABLE.WOOD",
        "placer": "",
        "maxDurability": 0
    },
    "103": {
        "currentDurability": 0,
        "location": {
            "y": 124,
            "x": 15
        },
        "currentRespawnTime": 0,
        "currentState": "green",
        "itemInstanceId": 103,
        "maxRespawnTime": 0,
        "itemDef": "LIGHT.WALL.SCONCE",
        "placer": "",
        "maxDurability": 0
    },
    "131": {
        "currentDurability": 0,
        "location": {
            "y": 124,
            "x": 125
        },
        "currentRespawnTime": 0,
        "currentState": "green",
        "itemInstanceId": 131,
        "maxRespawnTime": 0,
        "itemDef": "LIGHT.WALL.SCONCE",
        "placer": "",
        "maxDurability": 0
    },
    "130": {
        "currentDurability": 0,
        "location": {
            "y": 127,
            "x": 7
        },
        "currentRespawnTime": 0,
        "currentState": "main",
        "itemInstanceId": 130,
        "maxRespawnTime": 0,
        "itemDef": "TABLE.TRESTLE",
        "placer": "",
        "maxDurability": 0
    },
    "98": {
        "currentDurability": 0,
        "location": {
            "y": 124,
            "x": 2
        },
        "currentRespawnTime": 0,
        "currentState": "green",
        "itemInstanceId": 98,
        "maxRespawnTime": 0,
        "itemDef": "LIGHT.WALL.SCONCE",
        "placer": "",
        "maxDurability": 0
    },
    "145": {
        "currentDurability": 0,
        "location": {
            "y": 3,
            "x": 7
        },
        "currentRespawnTime": 0,
        "currentState": "main",
        "itemInstanceId": 145,
        "maxRespawnTime": 0,
        "itemDef": "TABLE.WOOD",
        "placer": "",
        "maxDurability": 0
    },
    "93": {
        "userDefinedData": {
            "respawnRate": "60",
            "npcs": [
                {
                    "id": "HUMAN.FEMALE.ZOMBIE",
                    "chance": 1
                },
                {
                    "id": "HUMAN.MALE.ZOMBIE",
                    "chance": 1
                }
            ],
            "respawnRadius": "3",
            "immediateSpawn": true,
            "respawnLimit": "3"
        },
        "currentDurability": 0,
        "location": {
            "y": 1,
            "x": 18
        },
        "currentRespawnTime": 0,
        "currentState": "main",
        "itemInstanceId": 93,
        "maxRespawnTime": 0,
        "itemDef": "NPC.SPAWN",
        "placer": "",
        "maxDurability": 0
    },
    "148": {
        "currentDurability": 100,
        "location": {
            "y": 4,
            "x": 123
        },
        "currentRespawnTime": 0,
        "currentState": "faceRight",
        "itemInstanceId": 148,
        "maxRespawnTime": 0,
        "itemDef": "CHAIR.WOODEN",
        "placer": "",
        "maxDurability": 100
    },
    "149": {
        "currentDurability": 100,
        "location": {
            "y": 6,
            "x": 123
        },
        "currentRespawnTime": 0,
        "currentState": "faceRight",
        "itemInstanceId": 149,
        "maxRespawnTime": 0,
        "itemDef": "CHAIR.WOODEN",
        "placer": "",
        "maxDurability": 100
    },
    "91": {
        "userDefinedData": {
            "respawnRate": "60",
            "npcs": [
                {
                    "id": "HUMAN.FEMALE.ZOMBIE",
                    "chance": 1
                },
                {
                "id": "HUMAN.MALE.ZOMBIE",
                "chance": 1
            }],
            "respawnRadius": "3",
            "immediateSpawn": true,
            "respawnLimit": "3"
        },
        "currentDurability": 0,
        "location": {
            "y": 1,
            "x": 114
        },
        "currentRespawnTime": 0,
        "currentState": "main",
        "itemInstanceId": 91,
        "maxRespawnTime": 0,
        "itemDef": "NPC.SPAWN",
        "placer": "",
        "maxDurability": 0
    },
    "90": {
        "userDefinedData": {
            "respawnRate": "120",
            "npcs": [{
                "id": "NPC.ATEGNATOS",
                "chance": 1
            }],
            "respawnRadius": "0",
            "immediateSpawn": true,
            "respawnLimit": "1"
        },
        "currentDurability": 0,
        "location": {
            "y": 127,
            "x": 2
        },
        "currentRespawnTime": 0,
        "currentState": "main",
        "itemInstanceId": 90,
        "maxRespawnTime": 0,
        "itemDef": "NPC.SPAWN",
        "placer": "",
        "maxDurability": 0
    },
    "10": {
        "currentDurability": 0,
        "location": {
            "y": 123,
            "x": 5
        },
        "currentRespawnTime": 0,
        "currentState": "wood",
        "itemInstanceId": 10,
        "maxRespawnTime": 0,
        "itemDef": "WINDOW.INTERIOR",
        "placer": "",
        "maxDurability": 0
    },
    "140": {
        "currentDurability": 100,
        "location": {
            "y": 0,
            "x": 8
        },
        "currentRespawnTime": 0,
        "currentState": "faceLeft",
        "itemInstanceId": 140,
        "maxRespawnTime": 0,
        "itemDef": "CHAIR.WOODEN",
        "placer": "",
        "maxDurability": 100
    },
    "142": {
        "currentDurability": 0,
        "location": {
            "y": 3,
            "x": 124
        },
        "currentRespawnTime": 0,
        "currentState": "main",
        "itemInstanceId": 142,
        "maxRespawnTime": 0,
        "itemDef": "TABLE.WOOD",
        "placer": "",
        "maxDurability": 0
    }
}