[
	{
		"id"       :"STATS",
		"name"     :"Character Statistics",
		"shortDesc":"",
		"longDesc" :"",
		"icon"     :"anatomy"
	},
	{
		"id"       :"DEFENSE",
		"name"     :"Defense",
		"shortDesc":"",
		"longDesc" :"",
		"icon"     :"breastplate"
	},
	{
		"id"       :"CRAFTING",
		"name"     :"Crafting",
		"shortDesc":"",
		"longDesc" :"",
		"icon"     :"stone-crafting"
	},
	{
		"id"       :"WEAPONS",
		"name"     :"Weapons",
		"shortDesc":"",
		"longDesc" :"",
		"icon"     :"sword-clash"
	},
	{
		"id"       :"SPELLCASTING",
		"name"     :"Spellcasting",
		"shortDesc":"",
		"longDesc" :"",
		"icon"     :"smoking-finger"
	}
]