{
	"CORE.BEHAVIOR.EVOLVE"           :"net.lugdunon.state.character.behavior.core.EvolveBehavior",
	"CORE.BEHAVIOR.CYCLE"            :"net.lugdunon.state.character.behavior.core.CycleBehavior",
	"CORE.BEHAVIOR.IDLE"             :"net.lugdunon.state.character.behavior.core.IdleBehavior",
	"CORE.BEHAVIOR.PATH"             :"net.lugdunon.state.character.behavior.core.PathBehavior",
	"CORE.BEHAVIOR.REPRODUCE"        :"net.lugdunon.state.character.behavior.core.ReproduceBehavior",
	"CORE.BEHAVIOR.AGGRO"            :"net.lugdunon.state.character.behavior.core.AggroBehavior",
	"CORE.BEHAVIOR.PLAYER.PROXIMITY" :"net.lugdunon.state.character.behavior.core.PlayerProximityBehavior",
	"CORE.BEHAVIOR.DEATH"            :"net.lugdunon.state.character.behavior.core.DeathBehavior",
	"CORE.BEHAVIOR.PLAY.DEAD"        :"net.lugdunon.state.character.behavior.core.PlayDeadBehavior",
	"CORE.BEHAVIOR.ATEGNATOS.AGGRO"  :"net.lugdunon.state.character.behavior.core.AtegnatosAggroBehavior",
	"CORE.BEHAVIOR.PERFORM.ACTION"   :"net.lugdunon.state.character.behavior.core.PerformActionBehavior",
	"CORE.BEHAVIOR.FACE.DIRECTION"   :"net.lugdunon.state.character.behavior.core.FaceDirectionBehavior",
	"CORE.BEHAVIOR.PATROL"           :"net.lugdunon.state.character.behavior.core.SetPatrolBehavior"
}