[
    {
    	domain :"LIGHT", 
    	deities:
    	[
    		{
    			name:"Belenus",
    			description:"",
    			acolyte     :"Belenesian",
    			sect        :"Belenesia",
    			
    			fatherNamePattern :"{NAME} the Radiant",
    			elderNamePattern  :"Beloved {NAME}",
    			monkNamePattern   :"{NAME} the Devout",
    			acolyteNamePattern:"Acolyte {NAME}"
    		},
    		{
    			name:"Lugus",
    			description:"",
    			acolyte     :"Lugite",
    			sect        :"Lugine",
    			
    			fatherNamePattern :"{NAME} the Many-Faced",
    			elderNamePattern  :"Beloved {NAME}",
    			monkNamePattern   :"{NAME} the Devout",
    			acolyteNamePattern:"Acolyte {NAME}"
    		},
    		{
    			name:"Nemausus",
    			description:"",
    			acolyte     :"Nemausite",
    			sect        :"Nemausine",
    			
    			fatherNamePattern :"{NAME} the Radiant",
    			elderNamePattern  :"Beloved {NAME}",
    			monkNamePattern   :"{NAME} the Devout",
    			acolyteNamePattern:"Acolyte {NAME}"
    		},
    		{
    			name:"Epona",
    			description:"",
    			acolyte     :"Eponite",
    			sect        :"Eponine",
    			
    			fatherNamePattern :"{NAME} the Radiant",
    			elderNamePattern  :"Beloved {NAME}",
    			monkNamePattern   :"{NAME} the Devout",
    			acolyteNamePattern:"Acolyte {NAME}"
    		},
    		{
    			name:"Rosmerta",
    			description:"",
    			acolyte     :"Rosmertian",
    			sect        :"Rosmertia",
    			
    			fatherNamePattern :"{NAME} the Radiant",
    			elderNamePattern  :"Beloved {NAME}",
    			monkNamePattern   :"{NAME} the Devout",
    			acolyteNamePattern:"Acolyte {NAME}"
    		}
    	]
    },
    {
    	domain :"SHADOW",
		deities:
    	[
    		{
    			name:"Ankou",
    			description:"",
    			acolyte     :"Ankite",
    			sect        :"Ankine",
    			
    			fatherNamePattern :"{NAME}, the Veiled One",
    			elderNamePattern  :"Beloved {NAME}",
    			monkNamePattern   :"{NAME} the Devout",
    			acolyteNamePattern:"Acolyte {NAME}"
    		},
    		{
    			name:"Dis",
    			description:"",
    			acolyte     :"Disian",
    			sect        :"Disia",
    			
    			fatherNamePattern :"{NAME}, the Veiled One",
    			elderNamePattern  :"Beloved {NAME}",
    			monkNamePattern   :"{NAME} the Devout",
    			acolyteNamePattern:"Acolyte {NAME}"
    		},
    		{
    			name:"Senua",
    			description:"",
    			acolyte     :"Senuite",
    			sect        :"Senuine",
    			
    			fatherNamePattern :"{NAME}, the Veiled One",
    			elderNamePattern  :"Beloved {NAME}",
    			monkNamePattern   :"{NAME} the Devout",
    			acolyteNamePattern:"Acolyte {NAME}"
    		},
    		{
    			name:"Moritasgus",
    			description:"",
    			acolyte     :"Moritasian",
    			sect        :"Moritasia",
    			
    			fatherNamePattern :"{NAME} of the Lidless Eye",
    			elderNamePattern  :"Beloved {NAME}",
    			monkNamePattern   :"{NAME} the Devout",
    			acolyteNamePattern:"Acolyte {NAME}"
    		},
    		{
    			name:"Genii Cucullati",
    			description:"",
    			acolyte     :"Cucullatian",
    			sect        :"Cucullatia",
    			
    			fatherNamePattern :"{NAME}, the Veiled One",
    			elderNamePattern  :"Beloved {NAME}",
    			monkNamePattern   :"{NAME} the Devout",
    			acolyteNamePattern:"Acolyte {NAME}"
    		}
    	]
    },
    {
    	domain :"AIR",
		deities:
    	[
    		{
    			name:"Aventia",
    			description:"",
    			acolyte     :"Aventite",
    			sect        :"Aventine",
    			
    			fatherNamePattern :"{NAME} of the Winds",
    			elderNamePattern  :"Beloved {NAME}",
    			monkNamePattern   :"{NAME} the Devout",
    			acolyteNamePattern:"Acolyte {NAME}"
    		},
    		{
    			name:"Camulus",
    			description:"",
    			acolyte     :"Camulite",
    			sect        :"Camuline",
    			
    			fatherNamePattern :"{NAME} of the Winds",
    			elderNamePattern  :"Beloved {NAME}",
    			monkNamePattern   :"{NAME} the Devout",
    			acolyteNamePattern:"Acolyte {NAME}"
    		},
    		{
    			name:"Taranis",
    			description:"",
    			acolyte     :"Taranian",
    			sect        :"Tarania",
    			
    			fatherNamePattern :"{NAME} of the Winds",
    			elderNamePattern  :"Beloved {NAME}",
    			monkNamePattern   :"{NAME} the Devout",
    			acolyteNamePattern:"Acolyte {NAME}"
    		},
    		{
    			name:"Ambisagrus",
    			description:"",
    			acolyte     :"Ambisagrian",
    			sect        :"Ambisagria",
    			
    			fatherNamePattern :"{NAME} of the Winds",
    			elderNamePattern  :"Beloved {NAME}",
    			monkNamePattern   :"{NAME} the Devout",
    			acolyteNamePattern:"Acolyte {NAME}"
    		},
    		{
    			name:"Leucetios",
    			description:"",
    			acolyte     :"Leucetite",
    			sect        :"Leucetine",
    			
    			fatherNamePattern :"{NAME} of the Winds",
    			elderNamePattern  :"Beloved {NAME}",
    			monkNamePattern   :"{NAME} the Devout",
    			acolyteNamePattern:"Acolyte {NAME}"
    		}
    	]
    },
    {
    	domain :"EARTH",
		deities:
    	[
    		{
    			name:"Alisanos",
    			description:"",
    			acolyte     :"Alisanosian",
    			sect        :"Alisanosia",
    			
    			fatherNamePattern :"{NAME} of the Grove",
    			elderNamePattern  :"Beloved {NAME}",
    			monkNamePattern   :"{NAME} the Devout",
    			acolyteNamePattern:"Acolyte {NAME}"
    		},
    		{
    			name:"Toutatis",
    			description:"",
    			acolyte     :"Toutatian",
    			sect        :"Toutatia",
    			
    			fatherNamePattern :"{NAME} the Armorican",
    			elderNamePattern  :"Beloved {NAME}",
    			monkNamePattern   :"{NAME} the Devout",
    			acolyteNamePattern:"Acolyte {NAME}"
    		},
    		{
    			name:"Tarvos",
    			description:"",
    			acolyte     :"Tarvosian",
    			sect        :"Tarvosia",
    			
    			fatherNamePattern :"{NAME} of the Grove",
    			elderNamePattern  :"Beloved {NAME}",
    			monkNamePattern   :"{NAME} the Devout",
    			acolyteNamePattern:"Acolyte {NAME}"
    		},
    		{
    			name:"Cernunnos",
    			description:"",
    			acolyte     :"Cernunnosian",
    			sect        :"Cernunnosia",
    			
    			fatherNamePattern :"{NAME} of the Grove",
    			elderNamePattern  :"Beloved {NAME}",
    			monkNamePattern   :"{NAME} the Devout",
    			acolyteNamePattern:"Acolyte {NAME}"
    		},
    		{
    			name:"Sucellos",
    			description:"",
    			acolyte     :"Sucellosian",
    			sect        :"Sucellosia",
    			
    			fatherNamePattern :"{NAME} of the Grove",
    			elderNamePattern  :"Beloved {NAME}",
    			monkNamePattern   :"{NAME} the Devout",
    			acolyteNamePattern:"Acolyte {NAME}"
    		},
    		{
    			name:"Ericura",
    			description:"",
    			acolyte     :"Ericuran",
    			sect        :"Ericuria",
    			
    			fatherNamePattern :"{NAME} of the Grove",
    			elderNamePattern  :"Beloved {NAME}",
    			monkNamePattern   :"{NAME} the Devout",
    			acolyteNamePattern:"Acolyte {NAME}"
    		}
    	]
    },
    {
    	domain :"FIRE",
		deities:
    	[
    		{
    			name:"Esus",
    			description:"",
    			acolyte     :"Esian",
    			sect        :"Esaria",
    			
    			fatherNamePattern :"{NAME} the Flame-Wreathed",
    			elderNamePattern  :"Beloved {NAME}",
    			monkNamePattern   :"{NAME} the Devout",
    			acolyteNamePattern:"Acolyte {NAME}"
    		},
    		{
    			name:"Vindonnus",
    			description:"",
    			acolyte     :"Vindonnusian",
    			sect        :"Vindonnusia",
    			
    			fatherNamePattern :"{NAME} the Flame-Wreathed",
    			elderNamePattern  :"Beloved {NAME}",
    			monkNamePattern   :"{NAME} the Devout",
    			acolyteNamePattern:"Acolyte {NAME}"
    		},
    		{
    			name:"Nantosuelta",
    			description:"",
    			acolyte     :"Nantosueltian",
    			sect        :"Nantosueltine",
    			
    			fatherNamePattern :"{NAME} the Flame-Wreathed",
    			elderNamePattern  :"Beloved {NAME}",
    			monkNamePattern   :"{NAME} the Devout",
    			acolyteNamePattern:"Acolyte {NAME}"
    		},
    		{
    			name:"Nemetona",
    			description:"",
    			acolyte     :"Nemetonian",
    			sect        :"Nemetonia",
    			
    			fatherNamePattern :"{NAME} the Flame-Wreathed",
    			elderNamePattern  :"Beloved {NAME}",
    			monkNamePattern   :"{NAME} the Devout",
    			acolyteNamePattern:"Acolyte {NAME}"
    		},
    		{
    			name:"Gobannos",
    			description:"",
    			acolyte     :"Gobannosian",
    			sect        :"Gobannosia",
    			
    			fatherNamePattern :"{NAME} the Flame-Wreathed",
    			elderNamePattern  :"Beloved {NAME}",
    			monkNamePattern   :"{NAME} the Devout",
    			acolyteNamePattern:"Acolyte {NAME}"
    		}
    	]
    },
    {
    	domain :"WATER",
		deities:
    	[
    		{
    			name:"Arnemetia",
    			description:"",
    			acolyte     :"Arnemetian",
    			sect        :"Arnemetine",
    			
    			fatherNamePattern :"{NAME} the Salt-Encrusted",
    			elderNamePattern  :"Beloved {NAME}",
    			monkNamePattern   :"{NAME} the Devout",
    			acolyteNamePattern:"Acolyte {NAME}"
    		},
    		{
    			name:"Luxovios",
    			description:"",
    			acolyte     :"Luxovisian",
    			sect        :"Luxovine",
    			
    			fatherNamePattern :"{NAME} of the Source",
    			elderNamePattern  :"Beloved {NAME}",
    			monkNamePattern   :"{NAME} the Devout",
    			acolyteNamePattern:"Acolyte {NAME}"
    		},
    		{
    			name:"Barinthus",
    			description:"",
    			acolyte     :"Barinthite",
    			sect        :"Barinthine",
    			
    			fatherNamePattern :"{NAME} the Salt-Encrusted",
    			elderNamePattern  :"Beloved {NAME}",
    			monkNamePattern   :"{NAME} the Devout",
    			acolyteNamePattern:"Acolyte {NAME}"
    		},
    		{
    			name:"Belisama",
    			description:"",
    			acolyte     :"Belisamarian",
    			sect        :"Belisamaria",
    			
    			fatherNamePattern :"{NAME} the Salt-Encrusted",
    			elderNamePattern  :"Beloved {NAME}",
    			monkNamePattern   :"{NAME} the Devout",
    			acolyteNamePattern:"Acolyte {NAME}"
    		},
    		{
    			name:"Sequana",
    			description:"",
    			acolyte     :"Sequanarian",
    			sect        :"Sequanaria",
    			
    			fatherNamePattern :"{NAME} the Salt-Encrusted",
    			elderNamePattern  :"Beloved {NAME}",
    			monkNamePattern   :"{NAME} the Devout",
    			acolyteNamePattern:"Acolyte {NAME}"
    		}
    	]
    }    
]