[
    {id:"LIGHT", name:"Light", description:"A scholar of light seeks to harness the very element of warmth and life, which is most associated with the abilities of healing, rebirth, and intelligence.<br/><br/>The light is the domain of deities such as Belenus, Lugus, Nemausus, Epona, and Rosmerta.",icon:"ITEM_SCROLL_LIGHT" },
    {id:"SHADOW",name:"Shadow",description:"A scholar of shadow communes with the unspeakable, eldritch, and hidden mysteries of the mortal realm. Magics wrought of shadow are for the most part, things of death, disease, unholy bargains, and other foul workings.<br/><br/>The shadow is the domain of deities such as Ankou, Dis, Senua, Moritasgus, and the Genii Cucullati.",icon:"ITEM_SCROLL_SHADOW"},
    {id:"AIR",   name:"Air",   description:"A scholar of air strives to harness the very breath of life, and to thereby gain the aid of those in the aetherial realm in order to bestow blessings and boons upon themselves and others.<br/><br/>The air is the domain of deities such as Aventia, Camulus, Taranis, Ambisagrus, and Leucetios.",icon:"ITEM_SCROLL_AIR"   },
    {id:"EARTH", name:"Earth", description:"A scholar of earth toils with stone, earth, and verdure, entreating such to restrain their enemies and grant their companions freedom.<br/><br/>The earth is the domain of deities such as Alisanos, Toutatis, Tarvos, Cernunnos, Sucellos, and Ericura.",icon:"ITEM_SCROLL_EARTH" },
    {id:"FIRE",  name:"Fire",  description:"A scholar of fire entreats the element of flame and war to grant them the power to rain down destruction upon their enemies.<br/><br/>The flames are the domain of deities such as Esus, Vindonnus, Nantosuelta, Nemetona, and Gobannos.",icon:"ITEM_SCROLL_FIRE"  },
    {id:"WATER", name:"Water", description:"A scholar of water attempts to yoke the most powerful of the elements in their lust for power and dominance.<br/><br/>The waters are the domain of deities such as Arnemetia, Luxovios, Barinthus, Belisama, and Sequana.",icon:"ITEM_SCROLL_WATER" }      
]