{
    "terrain": "cabin",
    "spawn": {
        "y": 6,
        "x": 2
    },
    "indoor": true,
    "trackListing": {
        "interval": {
            "min": 300000,
            "max": 600000
        },
        "tracks": ["MUSIC.BACKGROUND.NOISE"]
    },
    "ambientLight": {
        "g": 16,
        "b": 16,
        "r":  0,
        "a":255
    }
}