{
    "10": {
        "currentDurability": 1000,
        "location": {
            "y": 127,
            "x": 9
        },
        "currentRespawnTime": 0,
        "currentState": "main",
        "itemInstanceId": 10,
        "maxRespawnTime": 0,
        "itemDef": "CRAFT.OVEN",
        "placer": "",
        "maxDurability": 1000
    },
    "17": {
        "currentDurability": 0,
        "location": {
            "y": 4,
            "x": 8
        },
        "currentRespawnTime": 0,
        "currentState": "main",
        "itemInstanceId": 17,
        "maxRespawnTime": 0,
        "itemDef": "TABLE.WOOD",
        "placer": "",
        "maxDurability": 0
    },
    "18": {
        "currentDurability": 0,
        "location": {
            "y": 5,
            "x": 7
        },
        "currentRespawnTime": 0,
        "currentState": "faceRight",
        "itemInstanceId": 18,
        "maxRespawnTime": 0,
        "itemDef": "CHAIR.WOODEN",
        "maxDurability": 0
    },
    "15": {
        "currentDurability": 0,
        "location": {
            "y": 126,
            "x": 7
        },
        "currentRespawnTime": 0,
        "currentState": "wood",
        "itemInstanceId": 15,
        "maxRespawnTime": 0,
        "itemDef": "WINDOW.INTERIOR",
        "placer": "",
        "maxDurability": 0
    },
    "9": {
        "currentDurability": 0,
        "location": {
            "y": 7,
            "x": 1
        },
        "currentRespawnTime": 0,
        "currentState": "main",
        "itemInstanceId": 9,
        "maxRespawnTime": 0,
        "itemDef": "PORTAL.BUILDING.EXIT",
        "placer": "",
        "maxDurability": 0
    },
    "14": {
        "currentDurability": 0,
        "location": {
            "y": 126,
            "x": 3
        },
        "currentRespawnTime": 0,
        "currentState": "wood",
        "itemInstanceId": 14,
        "maxRespawnTime": 0,
        "itemDef": "WINDOW.INTERIOR",
        "placer": "",
        "maxDurability": 0
    },
    "12": {
        "currentDurability": 0,
        "location": {
            "y": 0,
            "x": 0
        },
        "currentRespawnTime": 0,
        "currentState": "main",
        "itemInstanceId": 12,
        "maxRespawnTime": 0,
        "itemDef": "BED.SIMPLE",
        "placer": "",
        "maxDurability": 0
    }
}