{
    "terrain": "dimensionalPocket",
    "indoor": true,
    "ambientLight": {
        "g": 32,
        "b": 32,
        "r": 32,
        "a": 128
    },
    "spawn":{"x":35,"y":29},"trackListing":{"interval":{"min":300000,"max":600000},"tracks":["MUSIC.BACKGROUND.NOISE"]}
}